Filename: /lot_sizing/instantiate_model_eer_disk_call.py

Line #    Mem usage    Increment  Occurrences   Line Contents
=============================================================
    13     19.6 MiB     19.6 MiB           1   @profile(stream = fp)
    14                                         def instantiate_model(problem_instance_id, data_path):
    15                                             # For data preparation
    16     93.4 MiB     73.8 MiB           1       from lib.index_model import IndexModel
    17     93.4 MiB      0.0 MiB           1       from lib.prepare_data_in_memory import DataDiskLoader
    18    126.0 MiB     32.5 MiB           1       disk_load = DataDiskLoader(problem_instance_id, data_path)
    19                                         
    20    129.8 MiB      3.9 MiB           2       index_model = IndexModel(
    21    126.0 MiB      0.0 MiB           1           problem_instance_id = problem_instance_id,
    22    126.0 MiB      0.0 MiB           1           load_connection = False, 
    23    126.0 MiB      0.0 MiB           1           disk_data = disk_load.data_disk_load
    24                                             )
    25    129.8 MiB      0.0 MiB           1       index_model.instantiate()


