Filename: /lot_sizing/instantiate_model_eer_call.py

Line #    Mem usage    Increment  Occurrences   Line Contents
=============================================================
    13     19.5 MiB     19.5 MiB           1   @profile(stream = fp)
    14                                         def instantiate_model(problem_instance_id):
    15     91.5 MiB     72.0 MiB           1       from lib.index_model import IndexModel
    16    147.6 MiB     56.1 MiB           2       index_model = IndexModel(
    17     91.5 MiB      0.0 MiB           1           problem_instance_id = problem_instance_id, 
    18     91.5 MiB      0.0 MiB           1           load_connection = True
    19                                             )
    20    263.2 MiB    115.5 MiB           1       index_model.instantiate()


