Filename: /lot_sizing/instantiate_model_eer_call.py

Line #    Mem usage    Increment  Occurrences   Line Contents
=============================================================
    13     19.4 MiB     19.4 MiB           1   @profile(stream = fp)
    14                                         def instantiate_model(problem_instance_id):
    15     99.5 MiB     80.1 MiB           1       from lib.index_model import IndexModel
    16    107.3 MiB      7.8 MiB           2       index_model = IndexModel(
    17     99.5 MiB      0.0 MiB           1           problem_instance_id = problem_instance_id, 
    18     99.5 MiB      0.0 MiB           1           load_connection = True
    19                                             )
    20    107.9 MiB      0.7 MiB           1       index_model.instantiate()


