Filename: /lot_sizing/instantiate_model_eer_call.py

Line #    Mem usage    Increment  Occurrences   Line Contents
=============================================================
    13     19.3 MiB     19.3 MiB           1   @profile(stream = fp)
    14                                         def instantiate_model(problem_instance_id):
    15     93.2 MiB     73.8 MiB           1       from lib.index_model import IndexModel
    16    101.1 MiB      7.9 MiB           2       index_model = IndexModel(
    17     93.2 MiB      0.0 MiB           1           problem_instance_id = problem_instance_id, 
    18     93.2 MiB      0.0 MiB           1           load_connection = True
    19                                             )
    20    101.7 MiB      0.7 MiB           1       index_model.instantiate()


